<svg width="10" height="15" viewBox="0 0 10 15" fill="none" xmlns="http://www.w3.org/2000/svg">
<path d="M9.24998 7.49992C9.25005 7.60505 9.22797 7.70901 9.18519 7.80505C9.14241 7.90108 9.07989 7.98703 9.00169 8.05729L1.50169 14.8073C1.35386 14.9404 1.15924 15.0092 0.960619 14.9988C0.762002 14.9884 0.575668 14.8995 0.442606 14.7516C0.309545 14.6038 0.240657 14.4092 0.251096 14.2106C0.261535 14.0119 0.350446 13.8256 0.498271 13.6925L7.37901 7.49992L0.498271 1.30729C0.425076 1.24141 0.365574 1.16175 0.323163 1.07287C0.280753 0.983988 0.256265 0.887625 0.251096 0.78928C0.245927 0.690935 0.260179 0.592534 0.293038 0.499698C0.325898 0.406861 0.376721 0.321405 0.442606 0.24821C0.508492 0.175014 0.588148 0.115513 0.677029 0.0731022C0.76591 0.0306917 0.862274 0.0062027 0.960619 0.00103373C1.05896 -0.00413524 1.15736 0.0101169 1.2502 0.0429763C1.34304 0.0758358 1.42849 0.126659 1.50169 0.192545L9.00169 6.94255C9.07989 7.01281 9.14241 7.09876 9.18519 7.19479C9.22797 7.29082 9.25005 7.39479 9.24998 7.49992Z" fill="currentColor"/>
</svg>
