<svg width="10" height="16" viewBox="0 0 10 16" fill="none" xmlns="http://www.w3.org/2000/svg">
<path d="M0.749837 7.99992C0.749772 8.10505 0.771848 8.20901 0.814628 8.30505C0.857407 8.40108 0.91993 8.48703 0.998128 8.55729L8.49813 15.3073C8.64595 15.4404 8.84058 15.5092 9.0392 15.4988C9.23781 15.4884 9.42415 15.3995 9.55721 15.2516C9.69027 15.1038 9.75916 14.9092 9.74872 14.7106C9.73828 14.5119 9.64937 14.3256 9.50155 14.1925L2.62081 7.99992L9.50155 1.80729C9.57474 1.74141 9.63424 1.66175 9.67665 1.57287C9.71906 1.48399 9.74355 1.38762 9.74872 1.28928C9.75389 1.19093 9.73964 1.09253 9.70678 0.999698C9.67392 0.906861 9.6231 0.821405 9.55721 0.74821C9.49133 0.675014 9.41167 0.615513 9.32279 0.573102C9.23391 0.530692 9.13754 0.506203 9.0392 0.501034C8.94085 0.495865 8.84245 0.510117 8.74962 0.542976C8.65678 0.575836 8.57132 0.626659 8.49813 0.692545L0.998128 7.44255C0.91993 7.51281 0.857407 7.59876 0.814628 7.69479C0.771848 7.79082 0.749772 7.89479 0.749837 7.99992Z" fill="currentColor"/>
</svg>
